{
    "page": 1,
    "total_pages": 9,
    "total_results": 30,
    "results": [
                {
                "title": "movie title",
                "poster_path": "movie posterPath",
                "overview": "movie overview",
                "release_date": "movie releaseDate"
                }
                ]
}
